module gitlab.com/lubyshev/blockchain

go 1.18

require (
	github.com/segmentio/ksuid v1.0.4
	github.com/stretchr/testify v1.9.0
)

require (
	github.com/davecgh/go-spew v1.1.1 // indirect
	github.com/pmezard/go-difflib v1.0.0 // indirect
	gopkg.in/yaml.v3 v3.0.1 // indirect
)
